<?xml version="1.0" encoding="utf-8"?>
<svg viewBox="0 0 100 100" xmlns="http://www.w3.org/2000/svg" width="128px" height="128px"
     style="width:100%;height:100%;background-size:initial;background-repeat-y:initial;background-repeat-x:initial;background-position-y:initial;background-position-x:initial;background-origin:initial;background-image:initial;background-color:rgb(255, 255, 255);background-clip:initial;background-attachment:initial;animation-play-state:paused">
    <g class="ldl-scale" style="transform-origin:50% 50%;transform:scale(0.8);animation-play-state:paused">
        <g style="animation-play-state:paused">
            <g style="animation-play-state:paused">
                <path stroke-miterlimit="10" stroke-linejoin="round" stroke-linecap="round" stroke-width="3"
                      stroke="#000" fill="#d4145a"
                      d="M69.3 12.1c.8.2 1.4 1.1 1.4 1.8 0 1.1-1.4 1.9-2 2.4-1.5 1.1-2.6 4-1.1 11.6-5.7-1.5-11.3-3.1-17-4.6.8-.7 3.6-3.2 4.3-7.6.2-1.4.2-2.7 0-3.8-.3-1.9 2.4-2.6 3.1-.8v.1c.2.5.3 2 .7 2.2.7.4 2.4-3.1 4.2-2.8.6.1 1.1.7 1.2 1 .9 1.4.1 2.9.6 3.2.8.3 2.8-3.2 4.6-2.7z"
                      style="stroke:rgb(0, 0, 0);fill:rgb(212, 20, 90);animation-play-state:paused"></path>
                <path stroke-miterlimit="10" stroke-linejoin="round" stroke-linecap="round" stroke-width="3"
                      stroke="#000" fill="#d4145a"
                      d="M77.6 45.4c.5 2.2 3.4 13.9-3.1 19.9-3.3 3.1-8.9 3.1-19.7 2.9-11.7-.2-17.6-.4-21-4.1-5.3-5.8-2.7-15.7-1.8-18.7 2.1-7.9 9.5-22.8 22.8-22.8 12.9 0 20.7 14.1 22.8 22.8z"
                      style="stroke:rgb(0, 0, 0);fill:rgb(212, 20, 90);animation-play-state:paused"></path>
                <path stroke-miterlimit="10" stroke-linejoin="round" stroke-linecap="round" stroke-width="3"
                      stroke="#000" fill="#8cc63f"
                      d="M64.5 28.9l-12.8-2.7c-1.4-.3-2.4-1.7-2.1-3.2l.1-.5c.3-1.4 1.7-2.4 3.2-2.1l12.8 2.7c1.4.3 2.4 1.7 2.1 3.2l-.1.5c-.3 1.5-1.8 2.5-3.2 2.1z"
                      style="stroke:rgb(0, 0, 0);fill:rgb(140, 198, 63);animation-play-state:paused"></path>
            </g>
            <g style="animation-play-state:paused">
                <g style="animation-play-state:paused">
                    <path d="M53.3 34v10.6" stroke-miterlimit="10" stroke-linecap="round" stroke="#000" fill="none"
                          style="stroke:rgb(0, 0, 0);animation-play-state:paused"></path>
                    <path d="M50.8 35.4l2.5 2.4" stroke-miterlimit="10" stroke-linecap="round" stroke="#000" fill="none"
                          style="stroke:rgb(0, 0, 0);animation-play-state:paused"></path>
                    <path d="M55.8 35.4l-2.5 2.4" stroke-miterlimit="10" stroke-linecap="round" stroke="#000"
                          fill="none" style="stroke:rgb(0, 0, 0);animation-play-state:paused"></path>
                </g>
                <g style="animation-play-state:paused">
                    <path d="M49.4 37.5l3.9 4" stroke-miterlimit="10" stroke-linecap="round" stroke="#000" fill="none"
                          style="stroke:rgb(0, 0, 0);animation-play-state:paused"></path>
                    <path d="M48.9 38.9l1.9.1" stroke-miterlimit="10" stroke-linecap="round" stroke="#000" fill="none"
                          style="stroke:rgb(0, 0, 0);animation-play-state:paused"></path>
                    <path d="M50.9 37.2l-.1 1.8" stroke-miterlimit="10" stroke-linecap="round" stroke="#000" fill="none"
                          style="stroke:rgb(0, 0, 0);animation-play-state:paused"></path>
                </g>
                <g style="animation-play-state:paused">
                    <path d="M57.3 37.5l-4 4" stroke-miterlimit="10" stroke-linecap="round" stroke="#000" fill="none"
                          style="stroke:rgb(0, 0, 0);animation-play-state:paused"></path>
                    <path d="M57.7 38.9l-1.9.1" stroke-miterlimit="10" stroke-linecap="round" stroke="#000" fill="none"
                          style="stroke:rgb(0, 0, 0);animation-play-state:paused"></path>
                    <path d="M55.8 37.2V39" stroke-miterlimit="10" stroke-linecap="round" stroke="#000" fill="none"
                          style="stroke:rgb(0, 0, 0);animation-play-state:paused"></path>
                </g>
                <g style="animation-play-state:paused">
                    <path d="M41.1 45.4h11.2" stroke-miterlimit="10" stroke-linecap="round" stroke="#000" fill="none"
                          style="stroke:rgb(0, 0, 0);animation-play-state:paused"></path>
                    <path d="M42.6 47.8l2.5-2.4" stroke-miterlimit="10" stroke-linecap="round" stroke="#000" fill="none"
                          style="stroke:rgb(0, 0, 0);animation-play-state:paused"></path>
                    <path d="M42.6 43l2.5 2.4" stroke-miterlimit="10" stroke-linecap="round" stroke="#000" fill="none"
                          style="stroke:rgb(0, 0, 0);animation-play-state:paused"></path>
                </g>
                <g style="animation-play-state:paused">
                    <path d="M44.8 49.1l4.3-3.7" stroke-miterlimit="10" stroke-linecap="round" stroke="#000" fill="none"
                          style="stroke:rgb(0, 0, 0);animation-play-state:paused"></path>
                    <path d="M46.3 49.5v-1.8" stroke-miterlimit="10" stroke-linecap="round" stroke="#000" fill="none"
                          style="stroke:rgb(0, 0, 0);animation-play-state:paused"></path>
                    <path d="M44.4 47.7h1.9" stroke-miterlimit="10" stroke-linecap="round" stroke="#000" fill="none"
                          style="stroke:rgb(0, 0, 0);animation-play-state:paused"></path>
                </g>
                <g style="animation-play-state:paused">
                    <path d="M44.8 41.6l4.3 3.8" stroke-miterlimit="10" stroke-linecap="round" stroke="#000" fill="none"
                          style="stroke:rgb(0, 0, 0);animation-play-state:paused"></path>
                    <path d="M46.3 41.1v1.8" stroke-miterlimit="10" stroke-linecap="round" stroke="#000" fill="none"
                          style="stroke:rgb(0, 0, 0);animation-play-state:paused"></path>
                    <path d="M44.4 43l1.9-.1" stroke-miterlimit="10" stroke-linecap="round" stroke="#000" fill="none"
                          style="stroke:rgb(0, 0, 0);animation-play-state:paused"></path>
                </g>
                <g style="animation-play-state:paused">
                    <path d="M53.1 56.9V46.3" stroke-miterlimit="10" stroke-linecap="round" stroke="#000" fill="none"
                          style="stroke:rgb(0, 0, 0);animation-play-state:paused"></path>
                    <path d="M55.6 55.6l-2.5-2.4" stroke-miterlimit="10" stroke-linecap="round" stroke="#000"
                          fill="none" style="stroke:rgb(0, 0, 0);animation-play-state:paused"></path>
                    <path d="M50.5 55.6l2.6-2.4" stroke-miterlimit="10" stroke-linecap="round" stroke="#000" fill="none"
                          style="stroke:rgb(0, 0, 0);animation-play-state:paused"></path>
                </g>
                <g style="animation-play-state:paused">
                    <path d="M57 53.4l-3.9-4" stroke-miterlimit="10" stroke-linecap="round" stroke="#000" fill="none"
                          style="stroke:rgb(0, 0, 0);animation-play-state:paused"></path>
                    <path d="M57.5 52h-1.9" stroke-miterlimit="10" stroke-linecap="round" stroke="#000" fill="none"
                          style="stroke:rgb(0, 0, 0);animation-play-state:paused"></path>
                    <path d="M55.5 53.8l.1-1.8" stroke-miterlimit="10" stroke-linecap="round" stroke="#000" fill="none"
                          style="stroke:rgb(0, 0, 0);animation-play-state:paused"></path>
                </g>
                <g style="animation-play-state:paused">
                    <path d="M49.1 53.4l4-4" stroke-miterlimit="10" stroke-linecap="round" stroke="#000" fill="none"
                          style="stroke:rgb(0, 0, 0);animation-play-state:paused"></path>
                    <path d="M48.6 52h1.9" stroke-miterlimit="10" stroke-linecap="round" stroke="#000" fill="none"
                          style="stroke:rgb(0, 0, 0);animation-play-state:paused"></path>
                    <path d="M50.6 53.8l-.1-1.8" stroke-miterlimit="10" stroke-linecap="round" stroke="#000" fill="none"
                          style="stroke:rgb(0, 0, 0);animation-play-state:paused"></path>
                </g>
                <g style="animation-play-state:paused">
                    <path d="M65.2 45.6H54.1" stroke-miterlimit="10" stroke-linecap="round" stroke="#000" fill="none"
                          style="stroke:rgb(0, 0, 0);animation-play-state:paused"></path>
                    <path d="M63.8 43.2l-2.5 2.4" stroke-miterlimit="10" stroke-linecap="round" stroke="#000"
                          fill="none" style="stroke:rgb(0, 0, 0);animation-play-state:paused"></path>
                    <path d="M63.8 48l-2.5-2.4" stroke-miterlimit="10" stroke-linecap="round" stroke="#000" fill="none"
                          style="stroke:rgb(0, 0, 0);animation-play-state:paused"></path>
                </g>
                <g style="animation-play-state:paused">
                    <path d="M61.6 41.8l-4.3 3.8" stroke-miterlimit="10" stroke-linecap="round" stroke="#000"
                          fill="none" style="stroke:rgb(0, 0, 0);animation-play-state:paused"></path>
                    <path d="M60.1 41.4l-.1 1.8" stroke-miterlimit="10" stroke-linecap="round" stroke="#000" fill="none"
                          style="stroke:rgb(0, 0, 0);animation-play-state:paused"></path>
                    <path d="M61.9 43.3l-1.9-.1" stroke-miterlimit="10" stroke-linecap="round" stroke="#000" fill="none"
                          style="stroke:rgb(0, 0, 0);animation-play-state:paused"></path>
                </g>
                <g style="animation-play-state:paused">
                    <path d="M61.6 49.3l-4.3-3.7" stroke-miterlimit="10" stroke-linecap="round" stroke="#000"
                          fill="none" style="stroke:rgb(0, 0, 0);animation-play-state:paused"></path>
                    <path d="M60.1 49.8L60 48" stroke-miterlimit="10" stroke-linecap="round" stroke="#000" fill="none"
                          style="stroke:rgb(0, 0, 0);animation-play-state:paused"></path>
                    <path d="M61.9 47.9L60 48" stroke-miterlimit="10" stroke-linecap="round" stroke="#000" fill="none"
                          style="stroke:rgb(0, 0, 0);animation-play-state:paused"></path>
                </g>
            </g>
        </g>
        <g style="animation-play-state:paused">
            <path d="M76.421 86.6h-8v-8h8z" stroke-miterlimit="10" stroke-linejoin="round" stroke-linecap="round"
                  stroke-width="3" stroke="#000" fill="#c69c6d"
                  style="stroke:rgb(0, 0, 0);fill:rgb(198, 156, 109);animation-play-state:paused"></path>
            <path d="M35.6 77.5h8v8h-8z" stroke-miterlimit="10" stroke-linejoin="round" stroke-linecap="round"
                  stroke-width="3" stroke="#000" fill="#c69c6d"
                  style="stroke:rgb(0, 0, 0);fill:rgb(198, 156, 109);animation-play-state:paused"></path>
            <path stroke-miterlimit="10" stroke-linejoin="round" stroke-linecap="round" stroke-width="3" stroke="#000"
                  fill="#c69c6d"
                  d="M87.6 55.7c0-2.8-2.2-5-5-5H65.9c-8 0-14.5 6.5-14.5 14.5v0h-6.2c-.9 0-1.7-.8-1.7-1.7v0c0-.9-.8-1.7-1.7-1.7H29.3c-1.8 0-3.3 1.5-3.3 3.3v8.2c0 3 2.4 5.4 5.4 5.4H77c3 0 5.4-2.4 5.4-5.4V55.7h5.2z"
                  style="stroke:rgb(0, 0, 0);fill:rgb(198, 156, 109);animation-play-state:paused"></path>
            <path stroke-miterlimit="10" stroke-linejoin="round" stroke-linecap="round" stroke-width="3" stroke="#000"
                  fill="#c69c6d"
                  d="M19.4 85.2l-6.8-6.8c-1-.5-2.2-.1-2.8.9-.6.9-.7 2.2-.2 3.3.2.4 5.4 5.4 6.1 6.1.7.7 1.3 1.2 2.1 1.3 1.1.1 2.2 0 3.3 0h67.6c1.2.1 2.2-1 2.2-2.3 0-1.3-1-2.6-2.2-2.5H19.4z"
                  style="stroke:rgb(0, 0, 0);fill:rgb(198, 156, 109);animation-play-state:paused"></path>
        </g>
        <metadata xmlns:d="https://loading.io/stock/" style="animation-play-state:paused">
            <d:name style="animation-play-state:paused">sleigh</d:name>
            <d:tags style="animation-play-state:paused">sleigh, gift, santa, christmas, sled</d:tags>
            <d:license style="animation-play-state:paused">by</d:license>
            <d:slug style="animation-play-state:paused">5j8lsi</d:slug>
        </metadata>
    </g><!-- generated by https://loading.io/ -->
</svg>